-------------------------------------------------------------------------------
Test set: com.watsapon.week5.AppTest
-------------------------------------------------------------------------------
Tests run: 3, Failures: 0, Errors: 0, Skipped: 0, Time elapsed: 0.119 s - in com.watsapon.week5.AppTest
